{
  "name": "uesrpg-d100",
  "title": "UESRPG d100",
  "description": "A system used to play the UESRPG (Unofficial Elder Scrolls Roleplaying Game) d100 system.",
  "version": 1.54,
  "minimumCoreVersion": "0.8.9",
  "compatibleCoreVersion": "9",
  "templateVersion": 2,
  "author": "DogBoneZone",
  "esmodules": ["module/simple.js"],
  "styles": ["styles/simple.css"],
  "packs": [
    {
      "name": "roll-tables",
      "label": "Loot Tables",
      "system": "uesrpg-d100",
      "path": "./packs/roll-tables.db",
      "entity": "RollTable"
    },
    {
      "name": "macros",
      "label": "Macros",
      "system": "uesrpg-d100",
      "path": "./packs/macros.db",
      "entity": "Macro"
    },
    {
      "name": "powers",
      "label": "Powers",
      "system": "uesrpg-d100",
      "path": "./packs/powers.db",
      "entity": "Item"
    },
    {
      "name": "traits",
      "label": "Traits",
      "system": "uesrpg-d100",
      "path": "./packs/traits.db",
      "entity": "Item"
    },
    {
      "name": "talents",
      "label": "Talents",
      "system": "uesrpg-d100",
      "path": "./packs/talents.db",
      "entity": "Item"
    },
    {
      "name": "standard-skills",
      "label": "Standard Skills",
      "system": "uesrpg-d100",
      "path": "./packs/standard-skills.db",
      "entity": "Item"
    },
    {
      "name": "signs",
      "label": "Birth Signs",
      "system": "uesrpg-d100",
      "path": "./packs/signs.db",
      "entity": "Item"
    }
  ],
  "languages": [],
  "gridDistance": 1,
  "gridUnits": "m",
  "primaryTokenAttribute": "hp",
  "secondaryTokenAttribute": "action_points",
  "url": "https://gitlab.com/DogBoneZone/uesrpg-3e/",
  "manifest": "https://gitlab.com/DogBoneZone/uesrpg-3e/raw/master/system.json",
  "download": "https://gitlab.com/DogBoneZone/uesrpg-3e/-/archive/1.54/uesrpg-3e-1.54.zip",
  "license": "LICENSE.txt"
}
